jsonFlickrApi({"photos":{"page":1, "pages":25, "perpage":20, "total":500, "photo":[{"id":"4560110511", "owner":"33860215@N04", "secret":"980e7ea838", "server":"3492", "farm":4, "title":"Day thirtyfive.  [IN EXPLORE]", "ispublic":1, "isfriend":0, "isfamily":0}, {"id":"4560994504", "owner":"34394953@N05", "secret":"d333e96ff4", "server":"3330", "farm":4, "title":"Day Fifty Seven (Explore Front Page -- April 28, 2010)", "ispublic":1, "isfriend":0, "isfamily":0}, {"id":"4560921875", "owner":"93685296@N00", "secret":"ffbb70de53", "server":"4034", "farm":5, "title":"Mindee Jo", "ispublic":1, "isfriend":0, "isfamily":0}]}, "stat":"ok"})